The Relationship Between World Countries' Health and Overall Happiness
…
# Create new dataset by tidying joined dataset.
summarized_table <- health_and_happiness %>%
  # Columns in summarized_table to put as rows.
  pivot_longer(cols = c('2021_Happiness_Score':'Mortality rate from unintentional poisoning'), 
               names_to = "Categories",           # Save all names as variable Categories.
               values_to = "Values")           # Save cell values as variable Values. 

summarized_table

## # A tibble: 1,410 × 3
##    Country Categories                                                     Values
##    <chr>   <chr>                                                           <dbl>
##  1 Finland 2021_Happiness_Score                                             7.84
##  2 Finland Health_index                                                     0.93
##  3 Finland Life expectancy (years)                                         71   
##  4 Finland Maternity mortality ratio                                        3   
##  5 Finland Percent of birth attended by skilled                           100   
##  6 Finland Under 5 mortality rate                                           2.3 
##  7 Finland Cancer death rate 30-70 years                                   10.1 
##  8 Finland Mortality rate attributed to household and ambient air pollut…   6   
##  9 Finland Mortality rate from unsafe water                                 0.2 
## 10 Finland Mortality rate from unintentional poisoning                      0.6 
## # … with 1,400 more rows
…
